<?xml version="1.0" encoding="iso-8859-1"?>
<!-- Generator: Adobe Illustrator 16.0.0, SVG Export Plug-In . SVG Version: 6.00 Build 0)  -->
<!DOCTYPE svg PUBLIC "-//W3C//DTD SVG 1.1//EN" "http://www.w3.org/Graphics/SVG/1.1/DTD/svg11.dtd">
<svg version="1.1" id="Capa_1" xmlns="http://www.w3.org/2000/svg" xmlns:xlink="http://www.w3.org/1999/xlink" x="0px" y="0px"
	 width="441.166px" height="441.166px" viewBox="0 0 441.166 441.166" style="enable-background:new 0 0 441.166 441.166;"
	 xml:space="preserve">
<g>
	<path d="M0,408.673h19.125v-19.125h9.562v19.125h9.562v-9.562h9.562v9.562h9.562v-19.125h9.562v19.125H76.5v-9.562h9.562v9.562
		h9.562v-19.125h9.562v19.125h9.562v-9.562h9.562v9.562h9.562v-19.125h9.562v19.125H153v-9.562h9.562v9.562h9.562v-19.125h9.562
		v19.125h9.562v-9.562h9.562v9.562h9.562v-19.125h9.562v19.125h9.562v-9.562h9.562v9.562h9.562v-19.125h9.562v19.125h9.562v-9.562
		h9.562v9.562h9.562v-19.125h9.562v19.125H306v-9.562h9.562v9.562h9.562v-19.125h9.562v19.125h9.562v-9.562h9.562v9.562h9.562
		v-19.125h9.562v19.125h9.562v-9.562h9.562v9.562h49.104L0,32.493V408.673z M86.062,193.468l184.365,148.267H86.062V193.468z"/>
</g>
<g>
</g>
<g>
</g>
<g>
</g>
<g>
</g>
<g>
</g>
<g>
</g>
<g>
</g>
<g>
</g>
<g>
</g>
<g>
</g>
<g>
</g>
<g>
</g>
<g>
</g>
<g>
</g>
<g>
</g>
</svg>
